\select@language {english}
\contentsline {section}{\numberline {1}UseCase}{3}
\contentsline {section}{\numberline {2}Datenquelle}{3}
\contentsline {section}{\numberline {3}Hortonworks HDP}{4}
\contentsline {section}{\numberline {4}Talend}{8}
\contentsline {section}{\numberline {5}Sqoop}{11}
\contentsline {section}{\numberline {6}Apache Hive}{12}
\contentsline {section}{\numberline {7}Apache Kylin}{12}
\contentsline {section}{\numberline {8}Installation in HDP}{12}
\contentsline {section}{\numberline {9}Import der Tables}{13}
\contentsline {section}{\numberline {10}Erzeugen eines Model}{14}
\contentsline {section}{\numberline {11}Erzeugen eines Cube auf Grundlage des Model}{17}
\contentsline {section}{\numberline {12}Build des Cubes}{20}
\contentsline {section}{\numberline {13}Query}{23}
\contentsline {section}{\numberline {14}JDBC-Treiber}{25}
