\relax 
\select@language{english}
\@writefile{toc}{\select@language{english}}
\@writefile{lof}{\select@language{english}}
\@writefile{lot}{\select@language{english}}
\@writefile{toc}{\contentsline {section}{\numberline {1}UseCase}{3}}
\@writefile{toc}{\contentsline {section}{\numberline {2}Datenquelle}{3}}
\@writefile{lof}{\contentsline {figure}{\numberline {1}{\ignorespaces Kaggle-DataSource-Spalten mit problematischen Werten.\relax }}{4}}
\@writefile{toc}{\contentsline {section}{\numberline {3}Hortonworks HDP}{4}}
\@writefile{lof}{\contentsline {figure}{\numberline {2}{\ignorespaces HDP 2.6.5 Download\relax }}{5}}
\@writefile{lof}{\contentsline {figure}{\numberline {3}{\ignorespaces HBase starten\relax }}{5}}
\@writefile{lol}{\contentsline {listing}{\numberline {1}{\ignorespaces Anlegen User + DB + Setzen der Berechtigungen\relax }}{5}}
\providecommand*\caption@xref[2]{\@setref\relax\@undefined{#1}}
\newlabel{code:create-db-sql}{{1}{5}}
\@writefile{lof}{\contentsline {figure}{\numberline {4}{\ignorespaces Erg\IeC {\"a}nzung der Port-Weiterleitungen\relax }}{6}}
\@writefile{lof}{\contentsline {figure}{\numberline {5}{\ignorespaces Putty Port Forwarding\relax }}{7}}
\@writefile{toc}{\contentsline {section}{\numberline {4}Talend}{8}}
\@writefile{lof}{\contentsline {figure}{\numberline {6}{\ignorespaces Talend-Prozess: CSV nach DB\relax }}{8}}
\@writefile{lof}{\contentsline {figure}{\numberline {7}{\ignorespaces Talend-Project-Outline\relax }}{9}}
\@writefile{lof}{\contentsline {figure}{\numberline {8}{\ignorespaces Talend-Project-Outline\relax }}{10}}
\@writefile{lol}{\contentsline {listing}{\numberline {2}{\ignorespaces Talend-Routine\relax }}{10}}
\newlabel{code:java-price-routine}{{2}{10}}
\@writefile{lol}{\contentsline {listing}{\numberline {3}{\ignorespaces Talend-BooleanRoutine\relax }}{11}}
\newlabel{code:java-boolean}{{3}{11}}
\@writefile{toc}{\contentsline {section}{\numberline {5}Sqoop}{11}}
\@writefile{lol}{\contentsline {listing}{\numberline {4}{\ignorespaces Versuch, alle Tables auf einmal zu importieren\relax }}{11}}
\newlabel{code:sqoop-all-tables-commands}{{4}{11}}
\@writefile{lol}{\contentsline {listing}{\numberline {5}{\ignorespaces Einzel-Table-Import mit Sqoop\relax }}{11}}
\newlabel{code:sqoop-single-table-commands}{{5}{11}}
\@writefile{toc}{\contentsline {section}{\numberline {6}Apache Hive}{12}}
\@writefile{lof}{\contentsline {figure}{\numberline {9}{\ignorespaces Tables umbenennen in Apache Hive\relax }}{12}}
\@writefile{toc}{\contentsline {section}{\numberline {7}Apache Kylin}{12}}
\@writefile{toc}{\contentsline {section}{\numberline {8}Installation in HDP}{12}}
\@writefile{lol}{\contentsline {listing}{\numberline {6}{\ignorespaces PATH-Erweiterung um Kylin-PATH\relax }}{12}}
\newlabel{code:kylin-path}{{6}{12}}
\@writefile{toc}{\contentsline {section}{\numberline {9}Import der Tables}{13}}
\@writefile{lof}{\contentsline {figure}{\numberline {10}{\ignorespaces Tables von Hive importieren\relax }}{14}}
\@writefile{toc}{\contentsline {section}{\numberline {10}Erzeugen eines Model}{14}}
\@writefile{lof}{\contentsline {figure}{\numberline {11}{\ignorespaces Definieren von Fact- und Lookup-Tables sowie Join-Constraints\relax }}{15}}
\@writefile{lof}{\contentsline {figure}{\numberline {12}{\ignorespaces Model - Dimensions\relax }}{16}}
\@writefile{lof}{\contentsline {figure}{\numberline {13}{\ignorespaces Model - Measures\relax }}{17}}
\@writefile{toc}{\contentsline {section}{\numberline {11}Erzeugen eines Cube auf Grundlage des Model}{17}}
\@writefile{lof}{\contentsline {figure}{\numberline {14}{\ignorespaces Measures\relax }}{18}}
\@writefile{lof}{\contentsline {figure}{\numberline {15}{\ignorespaces Cube - Dimension\relax }}{19}}
\@writefile{lof}{\contentsline {figure}{\numberline {16}{\ignorespaces Cube - Measures\relax }}{20}}
\@writefile{toc}{\contentsline {section}{\numberline {12}Build des Cubes}{20}}
\@writefile{lof}{\contentsline {figure}{\numberline {17}{\ignorespaces Build Cube\relax }}{21}}
\@writefile{lof}{\contentsline {figure}{\numberline {18}{\ignorespaces Build Cube - Progress\relax }}{21}}
\@writefile{lof}{\contentsline {figure}{\numberline {19}{\ignorespaces Build Cube - Progess Details\relax }}{22}}
\@writefile{lof}{\contentsline {figure}{\numberline {20}{\ignorespaces Build Cube - Progess Details\relax }}{22}}
\@writefile{lof}{\contentsline {figure}{\numberline {21}{\ignorespaces Build Cube - Progess Details\relax }}{23}}
\@writefile{toc}{\contentsline {section}{\numberline {13}Query}{23}}
\@writefile{lof}{\contentsline {figure}{\numberline {22}{\ignorespaces Query - Error\relax }}{24}}
\@writefile{lof}{\contentsline {figure}{\numberline {23}{\ignorespaces Grouped Query\relax }}{25}}
\@writefile{toc}{\contentsline {section}{\numberline {14}JDBC-Treiber}{25}}
\@writefile{lol}{\contentsline {listing}{\numberline {7}{\ignorespaces Kylin-JDBC-Driver\relax }}{25}}
\newlabel{code:kylin-jdbc-driver}{{7}{25}}
\gdef\minted@oldcachelist{,
  default.pygstyle,
  colorful.pygstyle,
  default-pyg-prefix.pygstyle,
  4D71E20E18426E8F8C5745AEBF141BCD99B76DF1C883F8A48C0E719C6E1DE978.pygtex,
  F763D0C613277492E94F4F73B59CBC474481F399DE7F477505F3CEDC5B0502E1.pygtex,
  6867E5F210FDB3291183F24278CE81594481F399DE7F477505F3CEDC5B0502E1.pygtex,
  DE7EE2F8337F39EC3410F6F24AEBCBA2A8462FD1C214ED80FDED64CD2D0A4925.pygtex,
  713452591C0B6A53405D204D6D649A50A8462FD1C214ED80FDED64CD2D0A4925.pygtex,
  0CC2E33BB0DA2AB03D4760E8A288E5FBA8462FD1C214ED80FDED64CD2D0A4925.pygtex,
  73DFC0577F0384F598C16E83C2F543CAB5950D76F39E1CC9C5C1DBA7F93BA9E8.pygtex}
\newlabel{LastPage}{{}{26}}
\xdef\lastpage@lastpage{26}
\gdef\lastpage@lastpageHy{}
